Multi-Objective Prioritization with the Epsilon-Constraint Approach • moec.prioritizr
…
## class       : SpatRaster
## size        : 109, 147, 396  (nrow, ncol, nlyr)
## resolution  : 4000, 4000  (x, y)
## extent      : -1816382, -1228382, 247483.5, 683483.5  (xmin, xmax, ymin, ymax)
## coord. ref. : +proj=laea +lat_0=45 +lon_0=-100 +x_0=0 +y_0=0 +ellps=sphere +units=m +no_defs
## source      : wa_features.tif
## names       : Recur~ding), Botau~ding), Botau~ding), Corvu~ding), Corvu~ding), Cincl~full), ...
## min values  :           0,           0,           0,           0,           0,           0, ...
## max values  :       0.514,       0.812,       3.129,       0.115,       0.296,        0.06, ...

print(wa_attr)

## # A tibble: 396 × 6
##    feature                  binomial family order extinction_prob interest_score
##    <chr>                    <chr>    <chr>  <chr>           <dbl>          <dbl>
##  1 Recurvirostra americana… Recurvi… Recur… Char…          0.0009          0.01 
##  2 Botaurus lentiginosus (… Botauru… Ardei… Pele…          0.0009          0.311
##  3 Botaurus lentiginosus (… Botauru… Ardei… Pele…          0.0009          0.311
##  4 Corvus brachyrhynchos (… Corvus … Corvi… Pass…          0.0009          0.01 
##  5 Corvus brachyrhynchos (… Corvus … Corvi… Pass…          0.0009          0.01 
##  6 Cinclus mexicanus (full) Cinclus… Cincl… Pass…          0.0009          0.01 
##  7 Spinus tristis (breedin… Spinus … Fring… Pass…          0.0009          0.01 
##  8 Spinus tristis (nonbree… Spinus … Fring… Pass…          0.0009          0.01 
##  9 Falco sparverius (breed… Falco s… Falco… Falc…          0.0009          3.73 
## 10 Falco sparverius (nonbr… Falco s… Falco… Falc…          0.0009          3.73 
## # ℹ 386 more rows
…
