…
``` r
print(wa_attr)
```

``` R
## # A tibble: 396 × 6
##    feature                  binomial family order extinction_prob interest_score
##    <chr>                    <chr>    <chr>  <chr>           <dbl>          <dbl>
##  1 Recurvirostra americana… Recurvi… Recur… Char…          0.0009          0.01 
##  2 Botaurus lentiginosus (… Botauru… Ardei… Pele…          0.0009          0.311
##  3 Botaurus lentiginosus (… Botauru… Ardei… Pele…          0.0009          0.311
##  4 Corvus brachyrhynchos (… Corvus … Corvi… Pass…          0.0009          0.01 
##  5 Corvus brachyrhynchos (… Corvus … Corvi… Pass…          0.0009          0.01 
##  6 Cinclus mexicanus (full) Cinclus… Cincl… Pass…          0.0009          0.01 
##  7 Spinus tristis (breedin… Spinus … Fring… Pass…          0.0009          0.01 
##  8 Spinus tristis (nonbree… Spinus … Fring… Pass…          0.0009          0.01 
##  9 Falco sparverius (breed… Falco s… Falco… Falc…          0.0009          3.73 
## 10 Falco sparverius (nonbr… Falco s… Falco… Falc…          0.0009          3.73 
## # ℹ 386 more rows
```
…
